{
  "artists": {
    "href": "https://api.spotify.com/v1/search?offset=0&limit=20&query=big%20th&type=artist&locale=*",
    "limit": 20,
    "next": "https://api.spotify.com/v1/search?offset=20&limit=20&query=big%20th&type=artist&locale=*",
    "offset": 0,
    "previous": null,
    "total": 906,
    "items": [
      {
        "external_urls": {
          "spotify": "https://open.spotify.com/artist/5QdyldG4Fl4TPiOIeMNpBZ"
        },
        "followers": { "href": null, "total": 1038711 },
        "genres": [
          "art pop",
          "brooklyn indie",
          "chamber pop",
          "countrygaze",
          "indie pop",
          "indie rock",
          "pov: indie",
          "small room"
        ],
        "href": "https://api.spotify.com/v1/artists/5QdyldG4Fl4TPiOIeMNpBZ",
        "id": "5QdyldG4Fl4TPiOIeMNpBZ",
        "images": [
          {
            "url": "https://i.scdn.co/image/ab6761610000e5eba54dfec710033513df46f705",
            "height": 640,
            "width": 640
          },
          {
            "url": "https://i.scdn.co/image/ab67616100005174a54dfec710033513df46f705",
            "height": 320,
            "width": 320
          },
          {
            "url": "https://i.scdn.co/image/ab6761610000f178a54dfec710033513df46f705",
            "height": 160,
            "width": 160
          }
        ],
        "name": "Big Thief",
        "popularity": 70,
        "type": "artist",
        "uri": "spotify:artist:5QdyldG4Fl4TPiOIeMNpBZ"
      },
      {
        "external_urls": {
          "spotify": "https://open.spotify.com/artist/5me0Irg2ANcsgc93uaYrpb"
        },
        "followers": { "href": null, "total": 11445040 },
        "genres": [
          "east coast hip hop",
          "gangster rap",
          "hardcore hip hop",
          "hip hop",
          "rap"
        ],
        "href": "https://api.spotify.com/v1/artists/5me0Irg2ANcsgc93uaYrpb",
        "id": "5me0Irg2ANcsgc93uaYrpb",
        "images": [
          {
            "url": "https://i.scdn.co/image/1b4858fbd24046a81cace5ee18d19c868262b91f",
            "height": 1250,
            "width": 1000
          },
          {
            "url": "https://i.scdn.co/image/9bb42de208edcb69653a8e7951fa93b13f598cdd",
            "height": 800,
            "width": 640
          },
          {
            "url": "https://i.scdn.co/image/e56612ae56c9007e99ab36b83efd4faf6401260d",
            "height": 250,
            "width": 200
          },
          {
            "url": "https://i.scdn.co/image/fc074d287739cca12a89c76fd338ff7d4aa4acee",
            "height": 80,
            "width": 64
          }
        ],
        "name": "The Notorious B.I.G.",
        "popularity": 78,
        "type": "artist",
        "uri": "spotify:artist:5me0Irg2ANcsgc93uaYrpb"
      },
      {
        "external_urls": {
          "spotify": "https://open.spotify.com/artist/4aKWmkWAKviFlyvHYPTNQY"
        },
        "followers": { "href": null, "total": 867316 },
        "genres": ["countrygaze", "indie pop", "small room"],
        "href": "https://api.spotify.com/v1/artists/4aKWmkWAKviFlyvHYPTNQY",
        "id": "4aKWmkWAKviFlyvHYPTNQY",
        "images": [
          {
            "url": "https://i.scdn.co/image/ab6761610000e5eb5a7d5278cf9deda53119028c",
            "height": 640,
            "width": 640
          },
          {
            "url": "https://i.scdn.co/image/ab676161000051745a7d5278cf9deda53119028c",
            "height": 320,
            "width": 320
          },
          {
            "url": "https://i.scdn.co/image/ab6761610000f1785a7d5278cf9deda53119028c",
            "height": 160,
            "width": 160
          }
        ],
        "name": "Adrianne Lenker",
        "popularity": 75,
        "type": "artist",
        "uri": "spotify:artist:4aKWmkWAKviFlyvHYPTNQY"
      },
      {
        "external_urls": {
          "spotify": "https://open.spotify.com/artist/1r1uxoy19fzMxunt3ONAkG"
        },
        "followers": { "href": null, "total": 2699728 },
        "genres": ["indie pop", "la indie", "pov: indie"],
        "href": "https://api.spotify.com/v1/artists/1r1uxoy19fzMxunt3ONAkG",
        "id": "1r1uxoy19fzMxunt3ONAkG",
        "images": [
          {
            "url": "https://i.scdn.co/image/ab6761610000e5eb626686e362d30246e816cc5b",
            "height": 640,
            "width": 640
          },
          {
            "url": "https://i.scdn.co/image/ab67616100005174626686e362d30246e816cc5b",
            "height": 320,
            "width": 320
          },
          {
            "url": "https://i.scdn.co/image/ab6761610000f178626686e362d30246e816cc5b",
            "height": 160,
            "width": 160
          }
        ],
        "name": "Phoebe Bridgers",
        "popularity": 79,
        "type": "artist",
        "uri": "spotify:artist:1r1uxoy19fzMxunt3ONAkG"
      },
      {
        "external_urls": {
          "spotify": "https://open.spotify.com/artist/6qxpnaukVayrQn6ViNvu9I"
        },
        "followers": { "href": null, "total": 1218729 },
        "genres": ["southern hip hop"],
        "href": "https://api.spotify.com/v1/artists/6qxpnaukVayrQn6ViNvu9I",
        "id": "6qxpnaukVayrQn6ViNvu9I",
        "images": [
          {
            "url": "https://i.scdn.co/image/ab6761610000e5eb67d85a54c927a30a7c94138d",
            "height": 640,
            "width": 640
          },
          {
            "url": "https://i.scdn.co/image/ab6761610000517467d85a54c927a30a7c94138d",
            "height": 320,
            "width": 320
          },
          {
            "url": "https://i.scdn.co/image/ab6761610000f17867d85a54c927a30a7c94138d",
            "height": 160,
            "width": 160
          }
        ],
        "name": "BigXthaPlug",
        "popularity": 82,
        "type": "artist",
        "uri": "spotify:artist:6qxpnaukVayrQn6ViNvu9I"
      },
      {
        "external_urls": {
          "spotify": "https://open.spotify.com/artist/4lxfqrEsLX6N1N4OCSkILp"
        },
        "followers": { "href": null, "total": 6470572 },
        "genres": ["rock drums", "soft rock"],
        "href": "https://api.spotify.com/v1/artists/4lxfqrEsLX6N1N4OCSkILp",
        "id": "4lxfqrEsLX6N1N4OCSkILp",
        "images": [
          {
            "url": "https://i.scdn.co/image/ab6761610000e5ebd4e38c4e3e5c82774740e28d",
            "height": 640,
            "width": 640
          },
          {
            "url": "https://i.scdn.co/image/ab67616100005174d4e38c4e3e5c82774740e28d",
            "height": 320,
            "width": 320
          },
          {
            "url": "https://i.scdn.co/image/ab6761610000f178d4e38c4e3e5c82774740e28d",
            "height": 160,
            "width": 160
          }
        ],
        "name": "Phil Collins",
        "popularity": 77,
        "type": "artist",
        "uri": "spotify:artist:4lxfqrEsLX6N1N4OCSkILp"
      },
      {
        "external_urls": {
          "spotify": "https://open.spotify.com/artist/5szilpXHcwOqnyKLqGco5j"
        },
        "followers": { "href": null, "total": 1670306 },
        "genres": ["atlanta indie", "indie pop"],
        "href": "https://api.spotify.com/v1/artists/5szilpXHcwOqnyKLqGco5j",
        "id": "5szilpXHcwOqnyKLqGco5j",
        "images": [
          {
            "url": "https://i.scdn.co/image/ab6761610000e5eb4935804c2a7f4d6a22525607",
            "height": 640,
            "width": 640
          },
          {
            "url": "https://i.scdn.co/image/ab676161000051744935804c2a7f4d6a22525607",
            "height": 320,
            "width": 320
          },
          {
            "url": "https://i.scdn.co/image/ab6761610000f1784935804c2a7f4d6a22525607",
            "height": 160,
            "width": 160
          }
        ],
        "name": "Faye Webster",
        "popularity": 74,
        "type": "artist",
        "uri": "spotify:artist:5szilpXHcwOqnyKLqGco5j"
      },
      {
        "external_urls": {
          "spotify": "https://open.spotify.com/artist/4jWGfUCFeTu5e0wprRhHXR"
        },
        "followers": { "href": null, "total": 648075 },
        "genres": ["crunk", "dirty south rap", "new orleans rap"],
        "href": "https://api.spotify.com/v1/artists/4jWGfUCFeTu5e0wprRhHXR",
        "id": "4jWGfUCFeTu5e0wprRhHXR",
        "images": [
          {
            "url": "https://i.scdn.co/image/76d18e99dd8cbca80c1fb5431fe5645d5fc23d92",
            "height": 670,
            "width": 1000
          },
          {
            "url": "https://i.scdn.co/image/e25b8b736a0ed67cd713eb02a35c2307f6e9c4ed",
            "height": 429,
            "width": 640
          },
          {
            "url": "https://i.scdn.co/image/1d3455eb375937ebb34eb750c755f3dd25f316cb",
            "height": 134,
            "width": 200
          },
          {
            "url": "https://i.scdn.co/image/235591589e11d9a62e1a03c1997fccf6f8931245",
            "height": 43,
            "width": 64
          }
        ],
        "name": "Big Tymers",
        "popularity": 52,
        "type": "artist",
        "uri": "spotify:artist:4jWGfUCFeTu5e0wprRhHXR"
      },
      {
        "external_urls": {
          "spotify": "https://open.spotify.com/artist/5OBN8AfE5Rv0K9lbAg16cO"
        },
        "followers": { "href": null, "total": 21832 },
        "genres": ["big band"],
        "href": "https://api.spotify.com/v1/artists/5OBN8AfE5Rv0K9lbAg16cO",
        "id": "5OBN8AfE5Rv0K9lbAg16cO",
        "images": [
          {
            "url": "https://i.scdn.co/image/ab67616d0000b273d28ba5e0afc957de19cf467f",
            "height": 640,
            "width": 640
          },
          {
            "url": "https://i.scdn.co/image/ab67616d00001e02d28ba5e0afc957de19cf467f",
            "height": 300,
            "width": 300
          },
          {
            "url": "https://i.scdn.co/image/ab67616d00004851d28ba5e0afc957de19cf467f",
            "height": 64,
            "width": 64
          }
        ],
        "name": "Count Basie Big Band",
        "popularity": 61,
        "type": "artist",
        "uri": "spotify:artist:5OBN8AfE5Rv0K9lbAg16cO"
      },
      {
        "external_urls": {
          "spotify": "https://open.spotify.com/artist/1hLiboQ98IQWhpKeP9vRFw"
        },
        "followers": { "href": null, "total": 995735 },
        "genres": ["indie pop", "pov: indie"],
        "href": "https://api.spotify.com/v1/artists/1hLiboQ98IQWhpKeP9vRFw",
        "id": "1hLiboQ98IQWhpKeP9vRFw",
        "images": [
          {
            "url": "https://i.scdn.co/image/ab6761610000e5eb1a6373c01e8b86e289859f57",
            "height": 640,
            "width": 640
          },
          {
            "url": "https://i.scdn.co/image/ab676161000051741a6373c01e8b86e289859f57",
            "height": 320,
            "width": 320
          },
          {
            "url": "https://i.scdn.co/image/ab6761610000f1781a6373c01e8b86e289859f57",
            "height": 160,
            "width": 160
          }
        ],
        "name": "boygenius",
        "popularity": 67,
        "type": "artist",
        "uri": "spotify:artist:1hLiboQ98IQWhpKeP9vRFw"
      },
      {
        "external_urls": {
          "spotify": "https://open.spotify.com/artist/2YZyLoL8N0Wb9xBt1NhZWg"
        },
        "followers": { "href": null, "total": 36210282 },
        "genres": ["conscious hip hop", "hip hop", "rap", "west coast rap"],
        "href": "https://api.spotify.com/v1/artists/2YZyLoL8N0Wb9xBt1NhZWg",
        "id": "2YZyLoL8N0Wb9xBt1NhZWg",
        "images": [
          {
            "url": "https://i.scdn.co/image/ab6761610000e5eb39ba6dcd4355c03de0b50918",
            "height": 640,
            "width": 640
          },
          {
            "url": "https://i.scdn.co/image/ab6761610000517439ba6dcd4355c03de0b50918",
            "height": 320,
            "width": 320
          },
          {
            "url": "https://i.scdn.co/image/ab6761610000f17839ba6dcd4355c03de0b50918",
            "height": 160,
            "width": 160
          }
        ],
        "name": "Kendrick Lamar",
        "popularity": 95,
        "type": "artist",
        "uri": "spotify:artist:2YZyLoL8N0Wb9xBt1NhZWg"
      },
      {
        "external_urls": {
          "spotify": "https://open.spotify.com/artist/07D1Bjaof0NFlU32KXiqUP"
        },
        "followers": { "href": null, "total": 538465 },
        "genres": ["art pop", "indie pop"],
        "href": "https://api.spotify.com/v1/artists/07D1Bjaof0NFlU32KXiqUP",
        "id": "07D1Bjaof0NFlU32KXiqUP",
        "images": [
          {
            "url": "https://i.scdn.co/image/ab6761610000e5eba5a55fb2f2c129da51b7676e",
            "height": 640,
            "width": 640
          },
          {
            "url": "https://i.scdn.co/image/ab67616100005174a5a55fb2f2c129da51b7676e",
            "height": 320,
            "width": 320
          },
          {
            "url": "https://i.scdn.co/image/ab6761610000f178a5a55fb2f2c129da51b7676e",
            "height": 160,
            "width": 160
          }
        ],
        "name": "Lucy Dacus",
        "popularity": 68,
        "type": "artist",
        "uri": "spotify:artist:07D1Bjaof0NFlU32KXiqUP"
      },
      {
        "external_urls": {
          "spotify": "https://open.spotify.com/artist/4mYY0UqYdvgdz60psupYBR"
        },
        "followers": { "href": null, "total": 41434 },
        "genres": ["small room"],
        "href": "https://api.spotify.com/v1/artists/4mYY0UqYdvgdz60psupYBR",
        "id": "4mYY0UqYdvgdz60psupYBR",
        "images": [
          {
            "url": "https://i.scdn.co/image/ab6761610000e5eb7e9be80dac7939767f8ebb35",
            "height": 640,
            "width": 640
          },
          {
            "url": "https://i.scdn.co/image/ab676161000051747e9be80dac7939767f8ebb35",
            "height": 320,
            "width": 320
          },
          {
            "url": "https://i.scdn.co/image/ab6761610000f1787e9be80dac7939767f8ebb35",
            "height": 160,
            "width": 160
          }
        ],
        "name": "Buck Meek",
        "popularity": 57,
        "type": "artist",
        "uri": "spotify:artist:4mYY0UqYdvgdz60psupYBR"
      },
      {
        "external_urls": {
          "spotify": "https://open.spotify.com/artist/2aAHdB5HweT3mFcRzm0swc"
        },
        "followers": { "href": null, "total": 540884 },
        "genres": [
          "adult standards",
          "big band",
          "dixieland",
          "easy listening",
          "jazz trombone",
          "lounge",
          "swing",
          "vocal jazz"
        ],
        "href": "https://api.spotify.com/v1/artists/2aAHdB5HweT3mFcRzm0swc",
        "id": "2aAHdB5HweT3mFcRzm0swc",
        "images": [
          {
            "url": "https://i.scdn.co/image/ab6761610000e5ebbf2be3724ebe17f9258a2180",
            "height": 640,
            "width": 640
          },
          {
            "url": "https://i.scdn.co/image/ab67616100005174bf2be3724ebe17f9258a2180",
            "height": 320,
            "width": 320
          },
          {
            "url": "https://i.scdn.co/image/ab6761610000f178bf2be3724ebe17f9258a2180",
            "height": 160,
            "width": 160
          }
        ],
        "name": "Glenn Miller",
        "popularity": 57,
        "type": "artist",
        "uri": "spotify:artist:2aAHdB5HweT3mFcRzm0swc"
      },
      {
        "external_urls": {
          "spotify": "https://open.spotify.com/artist/2ApaG60P4r0yhBoDCGD8YG"
        },
        "followers": { "href": null, "total": 1217330 },
        "genres": [
          "alternative rock",
          "indie rock",
          "melancholia",
          "singer-songwriter"
        ],
        "href": "https://api.spotify.com/v1/artists/2ApaG60P4r0yhBoDCGD8YG",
        "id": "2ApaG60P4r0yhBoDCGD8YG",
        "images": [
          {
            "url": "https://i.scdn.co/image/ab6761610000e5eb079739b801ab3f105866b76f",
            "height": 640,
            "width": 640
          },
          {
            "url": "https://i.scdn.co/image/ab67616100005174079739b801ab3f105866b76f",
            "height": 320,
            "width": 320
          },
          {
            "url": "https://i.scdn.co/image/ab6761610000f178079739b801ab3f105866b76f",
            "height": 160,
            "width": 160
          }
        ],
        "name": "Elliott Smith",
        "popularity": 67,
        "type": "artist",
        "uri": "spotify:artist:2ApaG60P4r0yhBoDCGD8YG"
      },
      {
        "external_urls": {
          "spotify": "https://open.spotify.com/artist/73MDShZzdL4vUGMkmXOG6X"
        },
        "followers": { "href": null, "total": 294793 },
        "genres": ["countrygaze", "indie pop", "portland indie", "small room"],
        "href": "https://api.spotify.com/v1/artists/73MDShZzdL4vUGMkmXOG6X",
        "id": "73MDShZzdL4vUGMkmXOG6X",
        "images": [
          {
            "url": "https://i.scdn.co/image/ab6761610000e5ebfc16d138f217def8c931ffda",
            "height": 640,
            "width": 640
          },
          {
            "url": "https://i.scdn.co/image/ab67616100005174fc16d138f217def8c931ffda",
            "height": 320,
            "width": 320
          },
          {
            "url": "https://i.scdn.co/image/ab6761610000f178fc16d138f217def8c931ffda",
            "height": 160,
            "width": 160
          }
        ],
        "name": "Haley Heynderickx",
        "popularity": 58,
        "type": "artist",
        "uri": "spotify:artist:73MDShZzdL4vUGMkmXOG6X"
      },
      {
        "external_urls": {
          "spotify": "https://open.spotify.com/artist/4J69yWrKwWJgjv3DKTZcGo"
        },
        "followers": { "href": null, "total": 299472 },
        "genres": ["blues rock", "folk rock", "psychedelic rock"],
        "href": "https://api.spotify.com/v1/artists/4J69yWrKwWJgjv3DKTZcGo",
        "id": "4J69yWrKwWJgjv3DKTZcGo",
        "images": [
          {
            "url": "https://i.scdn.co/image/ab6761610000e5eba3c19f64ce2e9252b4c643f7",
            "height": 640,
            "width": 640
          },
          {
            "url": "https://i.scdn.co/image/ab67616100005174a3c19f64ce2e9252b4c643f7",
            "height": 320,
            "width": 320
          },
          {
            "url": "https://i.scdn.co/image/ab6761610000f178a3c19f64ce2e9252b4c643f7",
            "height": 160,
            "width": 160
          }
        ],
        "name": "Big Brother & The Holding Company",
        "popularity": 54,
        "type": "artist",
        "uri": "spotify:artist:4J69yWrKwWJgjv3DKTZcGo"
      },
      {
        "external_urls": {
          "spotify": "https://open.spotify.com/artist/0wyMPXGfOuQzNR54ujR9Ix"
        },
        "followers": { "href": null, "total": 656916 },
        "genres": ["indie folk", "stomp and holler"],
        "href": "https://api.spotify.com/v1/artists/0wyMPXGfOuQzNR54ujR9Ix",
        "id": "0wyMPXGfOuQzNR54ujR9Ix",
        "images": [
          {
            "url": "https://i.scdn.co/image/ab6761610000e5eb14a8f509151ea8cbba5c75d5",
            "height": 640,
            "width": 640
          },
          {
            "url": "https://i.scdn.co/image/ab6761610000517414a8f509151ea8cbba5c75d5",
            "height": 320,
            "width": 320
          },
          {
            "url": "https://i.scdn.co/image/ab6761610000f17814a8f509151ea8cbba5c75d5",
            "height": 160,
            "width": 160
          }
        ],
        "name": "Caamp",
        "popularity": 69,
        "type": "artist",
        "uri": "spotify:artist:0wyMPXGfOuQzNR54ujR9Ix"
      },
      {
        "external_urls": {
          "spotify": "https://open.spotify.com/artist/5IWCU0V9evBlW4gIeGY4zF"
        },
        "followers": { "href": null, "total": 245650 },
        "genres": [
          "alabama indie",
          "bubblegrunge",
          "chamber pop",
          "countrygaze",
          "indie pop",
          "indie rock"
        ],
        "href": "https://api.spotify.com/v1/artists/5IWCU0V9evBlW4gIeGY4zF",
        "id": "5IWCU0V9evBlW4gIeGY4zF",
        "images": [
          {
            "url": "https://i.scdn.co/image/ab6761610000e5eb909fb4e2a0d9c0f880174263",
            "height": 640,
            "width": 640
          },
          {
            "url": "https://i.scdn.co/image/ab67616100005174909fb4e2a0d9c0f880174263",
            "height": 320,
            "width": 320
          },
          {
            "url": "https://i.scdn.co/image/ab6761610000f178909fb4e2a0d9c0f880174263",
            "height": 160,
            "width": 160
          }
        ],
        "name": "Waxahatchee",
        "popularity": 58,
        "type": "artist",
        "uri": "spotify:artist:5IWCU0V9evBlW4gIeGY4zF"
      },
      {
        "external_urls": {
          "spotify": "https://open.spotify.com/artist/1lOQRP0UJWmpoDWBa8PB0B"
        },
        "followers": { "href": null, "total": 140650 },
        "genres": ["roots rock"],
        "href": "https://api.spotify.com/v1/artists/1lOQRP0UJWmpoDWBa8PB0B",
        "id": "1lOQRP0UJWmpoDWBa8PB0B",
        "images": [
          {
            "url": "https://i.scdn.co/image/ab6761610000e5ebe7563edc093aab6879a52629",
            "height": 640,
            "width": 640
          },
          {
            "url": "https://i.scdn.co/image/ab67616100005174e7563edc093aab6879a52629",
            "height": 320,
            "width": 320
          },
          {
            "url": "https://i.scdn.co/image/ab6761610000f178e7563edc093aab6879a52629",
            "height": 160,
            "width": 160
          }
        ],
        "name": "Big Head Todd and The Monsters",
        "popularity": 47,
        "type": "artist",
        "uri": "spotify:artist:1lOQRP0UJWmpoDWBa8PB0B"
      }
    ]
  }
}
